<svg width="106" height="60" viewBox="0 0 106 60" fill="none" xmlns="http://www.w3.org/2000/svg">
<g clip-path="url(#clip0_1_282)">
<path d="M30.5147 0C27.4686 0 24.5473 1.21005 22.3934 3.36396L15.364 10.3934C13.2101 12.5473 12 15.4686 12 18.5147C12 24.8579 17.1421 30 23.4853 30C26.5314 30 29.4527 28.7899 31.6066 26.636L36.4689 21.7737C36.469 21.7738 36.4689 21.7736 36.4689 21.7737L50.636 7.6066C51.6647 6.57791 53.0599 6 54.5147 6C56.9503 6 59.0152 7.58741 59.7311 9.78407L64.2022 5.31296C62.1625 2.11834 58.586 0 54.5147 0C51.4686 0 48.5473 1.21005 46.3934 3.36396L27.364 22.3934C26.3353 23.4221 24.9401 24 23.4853 24C20.4558 24 18 21.5442 18 18.5147C18 17.0599 18.5779 15.6647 19.6066 14.636L26.636 7.6066C27.6647 6.57791 29.0599 6 30.5147 6C32.9504 6 35.0152 7.58748 35.7311 9.78421L40.2023 5.31307C38.1626 2.1184 34.5861 0 30.5147 0Z" fill="#1DA1F2"/>
<path d="M51.3639 22.3934C50.3352 23.4221 48.94 24 47.4852 24C45.0499 24 42.9852 22.413 42.2691 20.2167L37.7981 24.6877C39.8379 27.8819 43.4142 30 47.4852 30C50.5313 30 53.4526 28.7899 55.6065 26.636L74.6359 7.6066C75.6646 6.57791 77.0598 6 78.5146 6C81.5441 6 83.9999 8.45584 83.9999 11.4853C83.9999 12.9401 83.422 14.3353 82.3933 15.364L75.3639 22.3934C74.3352 23.4221 72.94 24 71.4852 24C69.0497 24 66.9849 22.4127 66.2689 20.2162L61.7979 24.6873C63.8376 27.8818 67.414 30 71.4852 30C74.5313 30 77.4526 28.7899 79.6065 26.636L86.6359 19.6066C88.7898 17.4527 89.9999 14.5314 89.9999 11.4853C89.9999 5.14214 84.8578 0 78.5146 0C75.4685 0 72.5472 1.21005 70.3933 3.36396L51.3639 22.3934Z" fill="#1DA1F2"/>
</g>
<path d="M1.368 54V36.696H4.536V50.808H18.648V54H1.368ZM19.6584 54V40.08H22.8024V54H19.6584ZM19.6584 38.688V35.52H22.8024V38.688H19.6584ZM25.2966 54V40.08H36.1206C36.7286 40.08 37.2806 40.232 37.7766 40.536C38.2886 40.84 38.6886 41.24 38.9766 41.736C39.2806 42.232 39.4326 42.784 39.4326 43.392V54H36.2886V43.512C36.2886 43.432 36.2566 43.368 36.1926 43.32C36.1446 43.256 36.0806 43.224 36.0006 43.224H28.7286C28.6486 43.224 28.5766 43.256 28.5126 43.32C28.4646 43.368 28.4406 43.432 28.4406 43.512V54H25.2966ZM41.7148 54V35.52H44.8588V45.456H47.3308L52.2988 40.08H55.6588V40.944L50.1148 47.04L55.6348 53.136V54H52.2988L47.3308 48.624H44.8588V54H41.7148ZM60.1058 54C59.4978 54 58.9458 53.848 58.4498 53.544C57.9538 53.24 57.5538 52.84 57.2498 52.344C56.9458 51.848 56.7938 51.296 56.7938 50.688V50.16H59.9378V50.568C59.9378 50.648 59.9618 50.72 60.0098 50.784C60.0738 50.832 60.1458 50.856 60.2258 50.856H67.4978C67.5778 50.856 67.6418 50.832 67.6898 50.784C67.7538 50.72 67.7858 50.648 67.7858 50.568V48.912C67.7858 48.832 67.7538 48.768 67.6898 48.72C67.6418 48.656 67.5778 48.624 67.4978 48.624H60.1058C59.4978 48.624 58.9458 48.472 58.4498 48.168C57.9538 47.864 57.5538 47.464 57.2498 46.968C56.9458 46.472 56.7938 45.92 56.7938 45.312V43.392C56.7938 42.784 56.9458 42.232 57.2498 41.736C57.5538 41.24 57.9538 40.84 58.4498 40.536C58.9458 40.232 59.4978 40.08 60.1058 40.08H67.6178C68.2418 40.08 68.8018 40.232 69.2978 40.536C69.7938 40.84 70.1938 41.24 70.4978 41.736C70.8018 42.232 70.9538 42.784 70.9538 43.392V43.92H67.7858V43.512C67.7858 43.432 67.7538 43.368 67.6898 43.32C67.6418 43.256 67.5778 43.224 67.4978 43.224H60.2258C60.1458 43.224 60.0738 43.256 60.0098 43.32C59.9618 43.368 59.9378 43.432 59.9378 43.512V45.168C59.9378 45.248 59.9618 45.32 60.0098 45.384C60.0738 45.432 60.1458 45.456 60.2258 45.456H67.6178C68.2418 45.456 68.8018 45.608 69.2978 45.912C69.7938 46.216 70.1938 46.616 70.4978 47.112C70.8018 47.608 70.9538 48.16 70.9538 48.768V50.688C70.9538 51.296 70.8018 51.848 70.4978 52.344C70.1938 52.84 69.7938 53.24 69.2978 53.544C68.8018 53.848 68.2418 54 67.6178 54H60.1058ZM82.8182 54V49.656H71.9462V46.704L83.0102 36.72H85.9622V46.488H88.3862V49.656H85.9622V54H82.8182ZM76.8422 46.488H82.8182V41.496L76.8422 46.488ZM93.6248 54C93.0168 54 92.4568 53.848 91.9448 53.544C91.4488 53.24 91.0488 52.84 90.7448 52.344C90.4568 51.848 90.3128 51.296 90.3128 50.688V40.08H93.4568V50.568C93.4568 50.648 93.4808 50.72 93.5288 50.784C93.5928 50.832 93.6648 50.856 93.7448 50.856H101.017C101.097 50.856 101.161 50.832 101.209 50.784C101.273 50.72 101.305 50.648 101.305 50.568V40.08H104.449V50.688C104.449 51.296 104.297 51.848 103.993 52.344C103.705 52.84 103.313 53.24 102.817 53.544C102.321 53.848 101.761 54 101.137 54H93.6248Z" fill="black"/>
<defs>
<clipPath id="clip0_1_282">
<rect width="78" height="30" fill="white" transform="translate(12)"/>
</clipPath>
</defs>
</svg>
